﻿{
  "DataConnectionString": "Data Source=AZKABAN\\SQLEXPRESS;Initial Catalog=Nopcommerce;Integrated Security=False;Persist Security Info=False;User ID=nopadmin;Password=1234",
  "DataProvider": "sqlserver",
  "SQLCommandTimeout": null,
  "RawDataSettings": {}
}